{
    "KPlugin": {
        "Authors": [
            {
                "Email": "notmart@gmail.com",
                "Name": "Marco Martin",
                "Name[az]": "Marco Martin",
                "Name[bg]": "Marco Martin",
                "Name[ca@valencia]": "Marco Martin",
                "Name[ca]": "Marco Martin",
                "Name[cs]": "Marco Martin",
                "Name[en_GB]": "Marco Martin",
                "Name[es]": "Marco Martin",
                "Name[eu]": "Marco Martin",
                "Name[fi]": "Marco Martin",
                "Name[fr]": "Marco Martin",
                "Name[ia]": "Marco Martin",
                "Name[id]": "Marco Martin",
                "Name[it]": "Marco Martin",
                "Name[ko]": "Marco Martin",
                "Name[nl]": "Marco Martin",
                "Name[nn]": "Marco Martin",
                "Name[pl]": "Marco Martin",
                "Name[pt]": "Marco Martin",
                "Name[pt_BR]": "Marco Martin",
                "Name[ru]": "Marco Martin",
                "Name[sl]": "Marco Martin",
                "Name[sv]": "Marco Martin",
                "Name[tr]": "Marco Martin",
                "Name[uk]": "Marco Martin",
                "Name[vi]": "Marco Martin",
                "Name[x-test]": "xxMarco Martinxx",
                "Name[zh_CN]": "Marco Martin"
            }
        ],
        "Category": "Examples",
        "Description": "A proof of concept media player controller qml",
        "Description[az]": "QML -dəki media pleyerin idarə olunması interfeysi nümunələri",
        "Description[bg]": "Доказателство за концепция за  контролер на медиен плейър qml",
        "Description[ca@valencia]": "Una prova del concepte de controlador en QML d'un reproductor multimèdia",
        "Description[ca]": "Una prova del concepte de controlador en QML d'un reproductor multimèdia",
        "Description[en_GB]": "A proof of concept media player controller qml",
        "Description[es]": "Una prueba de concepto de controlador de reproductor multimedia en QML",
        "Description[eu]": "qml euskarri-jotzaile kontrolatzaile baten kontzeptu proba",
        "Description[fi]": "Näytteenomainen mediasoitinohjain-QML",
        "Description[fr]": "Un prototype de démonstration de faisabilité d'un contrôleur de lecteur de média en « qml »",
        "Description[ia]": "Un prova de controlator qml de reproductor de media ideate",
        "Description[id]": "Bukti konsep pengontrol pemutar media qml",
        "Description[it]": "Un prototipo qml del controllo di un lettore multimediale",
        "Description[ko]": "QML 기반 미디어 재생기 제어 예제",
        "Description[nl]": "Een 'proof of concept' qml voor besturing van een mediaspeler",
        "Description[nn]": "Ein enkel QML-basert eksempel-mediespelarkontrollar",
        "Description[pl]": "Przykładowy sterownik odtwarzacza multimediów w qml",
        "Description[pt]": "Um QML de controlo de leitores multimédia como prova de conceito",
        "Description[sl]": "Dokaz koncepta krmilnika medijskega predvajalnika qml",
        "Description[sv]": "Ett koncept för styrning av mediaspelare i QML",
        "Description[tr]": "Kavram kanıtlayıcı bir ortam oynatıcı denetimi qml",
        "Description[uk]": "Тестова програма для спостереження за відтворенням мультимедійних даних, написана мовою qml",
        "Description[vi]": "Một trình điều khiển và phát phương tiện thử nghiệm viết bằng QML",
        "Description[x-test]": "xxA proof of concept media player controller qmlxx",
        "Description[zh_CN]": "媒体播放器控制器 QML 版本的概念验证程序",
        "EnabledByDefault": true,
        "Icon": "applications-multimedia",
        "Id": "org.kde.nowplaying-qml",
        "License": "GPL",
        "Name": "Now playing (QML)",
        "Name[az]": "İndi oynadılan (QML)",
        "Name[bg]": "Now playing (QML)",
        "Name[ca@valencia]": "Ara està en reproducció (QML)",
        "Name[ca]": "Ara està en reproducció (QML)",
        "Name[en_GB]": "Now playing (QML)",
        "Name[es]": "Reproduciendo (QML)",
        "Name[eu]": "Orain jotzen (QML)",
        "Name[fi]": "Nyt soi (QML)",
        "Name[fr]": "Jouer maintenant (QML)",
        "Name[ia]": "Ora reproducente (QML)",
        "Name[id]": "Now playing (QML)",
        "Name[it]": "In riproduzione (QML)",
        "Name[ko]": "지금 재생 중(QML)",
        "Name[nl]": "Speelt nu (QML)",
        "Name[nn]": "Spelar no (QML)",
        "Name[pl]": "Teraz odtwarzane (QML)",
        "Name[pt]": "Agora a tocar (QML)",
        "Name[pt_BR]": "Reproduzindo agora (QML)",
        "Name[ru]": "Сейчас играет (QML)",
        "Name[sl]": "Sedaj se predvaja (QML)",
        "Name[sv]": "Spelar nu (QML)",
        "Name[tr]": "Şimdi oynatılıyor (QML)",
        "Name[uk]": "Зараз відтворюємо (QML)",
        "Name[vi]": "Đang phát (QML)",
        "Name[x-test]": "xxNow playing (QML)xx",
        "Name[zh_CN]": "正在播放 (QML)",
        "ServiceTypes": [
            "Plasma/Applet"
        ],
        "Version": "1.0",
        "Website": "https://plasma.kde.org/"
    },
    "X-Plasma-API": "declarativeappletscript",
    "X-Plasma-MainScript": "qml/main.qml"
}
